…
We can find that mean of total number of steps taken for one day is 9354.23 steps, and its median is 10395


###What is the average daily activity pattern?

```r
library(dplyr)
grouped <- group_by(actdata,interval)
summarizeddata <- summarize(grouped,msteps=mean(steps,na.rm=TRUE))
summarizeddata
```

```
## # A tibble: 288 x 2
##    interval msteps
##       <int>  <dbl>
##  1        0 1.72  
##  2        5 0.340 
##  3       10 0.132 
##  4       15 0.151 
##  5       20 0.0755
##  6       25 2.09  
##  7       30 0.528 
##  8       35 0.868 
##  9       40 0     
## 10       45 1.47  
## # ... with 278 more rows
```
…
